* -------------------------------------------------------------------- *

                  T  H  E     L  E  G  E  N  D     O  F

            ##############
           ############## ######## #####    ######   ######
          ##        ####   ##   ##  ##       ##  ##   #####
                   ####    ## #  #  ##       ##   ##  ## ###
                 ####      ####     ##       ##   ##  ######
                ####       ## #  #  ##    #  ##   ## ###  ###
              ####         ##   ##  ##   ##  ##  ##  ###  ###
             ####      ## ######## ######## ######  ####  ####
           ##############
          ##############   A   L I N K   T O   T H E   P A S T

* -------------------------------------------------------------------- *
